'/``
trim/C
(/C
)/C
'/''
gave/VBD
me/PRP
fatal/JJ
error/NN
on/IN
Main/C
../.

if/JC
(/JC
str/JC
./JC
replaceAll/JC
(/JC
"/JC
\n/JC
"/JC
,/JC
"/JC
/JC
"/JC
)/JC
./JC
equals/JC
(/JC
"/JC
hello/JC
"/JC
)/JC
)/JC
-/--
returned/VBD
same/JJ
ELSE/C
result/NN
./.
