04/ER
-/ER
24/ER
09/ER
:/ER
07/ER
:/ER
15.424/ER
:/ER
E/ER
//ER
AndroidRuntime/ER
(/ER
450/ER
)/ER
:/ER
FATAL/ER
EXCEPTION/ER
:/ER
main/ER

04/ER
-/ER
24/ER
09/ER
:/ER
07/ER
:/ER
15.424/ER
:/ER
E/ER
//ER
AndroidRuntime/ER
(/ER
450/ER
)/ER
:/ER
java/ER
./ER
lang/ER
./ER
ExceptionInInitializerError/ER

04/ER
-/ER
24/ER
09/ER
:/ER
07/ER
:/ER
15.424/ER
:/ER
E/ER
//ER
AndroidRuntime/ER
(/ER
450/ER
)/ER
:/ER
at/ER
java/ER
./ER
lang/ER
./ER
Class/ER
./ER
newInstanceImpl/ER
(/ER
Native/ER
Method/ER
)/ER

04/ER
-/ER
24/ER
09/ER
:/ER
07/ER
:/ER
15.424/ER
:/ER
E/ER
//ER
AndroidRuntime/ER
(/ER
450/ER
)/ER
:/ER
at/ER
java/ER
./ER
lang/ER
./ER
Class/ER
./ER
newInstance/ER
(/ER
Class/ER
./ER
java/ER
:/ER
1429/ER
)/ER

04/ER
-/ER
24/ER
09/ER
:/ER
07/ER
:/ER
15.424/ER
:/ER
E/ER
//ER
AndroidRuntime/ER
(/ER
450/ER
)/ER
:/ER
at/ER
android/ER
./ER
app/ER
./ER
Instrumentation/ER
./ER
newActivity/ER
(/ER
Instrumentation/ER
./ER
java/ER
:/ER
1021/ER
)/ER

04/ER
-/ER
24/ER
09/ER
:/ER
07/ER
:/ER
15.424/ER
:/ER
E/ER
//ER
AndroidRuntime/ER
(/ER
450/ER
)/ER
:/ER
at/ER
android/ER
./ER
app/ER
./ER
ActivityThread/ER
./ER
performLaunchActivity/ER
(/ER
ActivityThread/ER
./ER
java/ER
:/ER
2577/ER
)/ER
