here/RB
is/VBZ
my/PRP$
code/NN
in/IN
background/NN
service/NN

public/JC
class/JC
BackgroundService/JC
extends/JC
Service/JC
{/JC

private/JC
int/JC
interval1/JC
=/JC
60/JC
;/JC
///JC
60/JC
seconds/JC

private/JC
int/JC
interval2/JC
=/JC
60/JC
;/JC
///JC
60/JC
seconds/JC

///JC
=============================================================================================================================/JC

private/JC
Handler/JC
mTimer1/JC
=/JC
new/JC
Handler/JC
(/JC
)/JC
;/JC

private/JC
Runnable/JC
mTask1/JC
=/JC
new/JC
Runnable/JC
(/JC
)/JC
{/JC
public/JC
void/JC
run/JC
(/JC
)/JC
{/JC
Looper/JC
./JC
prepare/JC
(/JC
)/JC
;/JC
Log/JC
./JC
w/JC
(/JC
"/JC
GPS/JC
Tracker/JC
"/JC
,/JC
"/JC
Tracker/JC
going/JC
to/JC
run/JC
"/JC
+/JC
new/JC
Date/JC
(/JC
)/JC
)/JC
;/JC
LocationManager/JC
mlocManager/JC
=/JC
(/JC
LocationManager/JC
)/JC
getSystemService/JC
(/JC
Context/JC
./JC
LOCATION_SERVICE/JC
)/JC
;/JC
LocationListener/JC
mlocListener/JC
=/JC
new/JC
MyLocationListener/JC
(/JC
)/JC
;/JC
mlocManager/JC
./JC
requestLocationUpdates/JC
(/JC
LocationManager/JC
./JC
GPS_PROVIDER/JC
,/JC
0/JC
,/JC
0/JC
,/JC
mlocListener/JC
)/JC
;/JC
///JC
,/JC
Looper/JC
./JC
getMainLooper/JC
(/JC
)/JC
)/JC
;/JC

mTimer1/JC
./JC
postDelayed/JC
(/JC
this/JC
,/JC
interval1/JC
*/JC
1000L/JC
)/JC
;/JC
Looper/JC
./JC
loop/JC
(/JC
)/JC
;/JC
}/JC
}/JC
;/JC

///JC
=============================================================================================================================/JC

private/JC
Handler/JC
mTimer2/JC
=/JC
new/JC
Handler/JC
(/JC
)/JC
;/JC

private/JC
Runnable/JC
mTask2/JC
=/JC
new/JC
Runnable/JC
(/JC
)/JC
{/JC
public/JC
void/JC
run/JC
(/JC
)/JC
{/JC
if/JC
(/JC
isOnline/JC
(/JC
)/JC
==/JC
true/JC
)/JC
{/JC
Log/JC
./JC
w/JC
(/JC
"/JC
Method/JC
2/JC
"/JC
,/JC
"/JC
setUpdateCardAcceptTag/JC
"/JC
)/JC
;/JC
setUpdateCardAcceptTag/JC
(/JC
)/JC
;/JC
Log/JC
./JC
w/JC
(/JC
"/JC
Method/JC
3/JC
"/JC
,/JC
"/JC
getCardBulkSerialData/JC
"/JC
)/JC
;/JC
getCardBulkSerialData/JC
(/JC
)/JC
;/JC
Log/JC
./JC
w/JC
(/JC
"/JC
Method/JC
12/JC
"/JC
,/JC
"/JC
updateStockDataFromRemote/JC
"/JC
)/JC
;/JC
updateStockDataFromRemote/JC
(/JC
)/JC
;/JC
Log/JC
./JC
w/JC
(/JC
"/JC
Method/JC
5/JC
"/JC
,/JC
"/JC
SetRemarksData/JC
"/JC
)/JC
;/JC
SetRemarksData/JC
(/JC
)/JC
;/JC
Log/JC
./JC
w/JC
(/JC
"/JC
Method/JC
6/JC
"/JC
,/JC
"/JC
SetCardSaleData/JC
"/JC
)/JC
;/JC
SetCardSaleData/JC
(/JC
)/JC
;/JC
Log/JC
./JC
w/JC
(/JC
"/JC
Method/JC
7/JC
"/JC
,/JC
"/JC
synchMerchants/JC
"/JC
)/JC
;/JC
synchMerchants/JC
(/JC
)/JC
;/JC
Log/JC
./JC
w/JC
(/JC
"/JC
Method/JC
9/JC
"/JC
,/JC
"/JC
getUpdatedCities/JC
"/JC
)/JC
;/JC
getUpdatedCities/JC
(/JC
)/JC
;/JC
Log/JC
./JC
w/JC
(/JC
"/JC
Method/JC
10/JC
"/JC
,/JC
"/JC
getNotifications/JC
"/JC
)/JC
;/JC
getNotifications/JC
(/JC
)/JC
;/JC
Log/JC
./JC
w/JC
(/JC
"/JC
Method/JC
11/JC
"/JC
,/JC
"/JC
getNextSerialDetails/JC
"/JC
)/JC
;/JC
getNextSerialDetails/JC
(/JC
)/JC
;/JC
Log/JC
./JC
w/JC
(/JC
"/JC
Method/JC
12/JC
"/JC
,/JC
"/JC
getNextSerialDetails/JC
"/JC
)/JC
;/JC
///JC
synchLocations/JC
(/JC
)/JC
;/JC
Log/JC
./JC
w/JC
(/JC
"/JC
Method/JC
13/JC
"/JC
,/JC
"/JC
synchLocations/JC
"/JC
)/JC
;/JC
}/JC
mTimer2/JC
./JC
postDelayed/JC
(/JC
this/JC
,/JC
interval2/JC
*/JC
1000L/JC
)/JC
;/JC
}/JC
}/JC
;/JC

when/WRB
i/PRP
run/VBP
the/DT
application/NN
its/PRP$
stopped/VBN
after/IN
few/JJ
seconds/NNS
./.

its/PRP
says/VBZ
below/IN
error/NN
message/NN
in/IN
log/NN
console/NN

please/RB
help/VB
me/PRP
to/TO
sort/VB
out/RP
this/DT
issue/NN

thanks/UH
