05/ER
-/ER
06/ER
22/ER
:/ER
50/ER
:/ER
33.058/ER
:/ER
E/ER
//ER
AndroidRuntime/ER
(/ER
5267/ER
)/ER
:/ER
Caused/ER
by/ER
:/ER
java/ER
./ER
lang/ER
./ER
NullPointerException/ER

05/ER
-/ER
06/ER
22/ER
:/ER
50/ER
:/ER
33.058/ER
:/ER
E/ER
//ER
AndroidRuntime/ER
(/ER
5267/ER
)/ER
:/ER
at/ER
android/ER
./ER
content/ER
./ER
ContextWrapper/ER
./ER
getApplicationContext/ER
(/ER
ContextWrapper/ER
./ER
java/ER
:/ER
109/ER
)/ER
