What/WP
I/PRP
ended/VBD
up/RP
doing/VBG
was/VBD
using/VBG
javascript/NNP
before/IN
each/DT
postback/NN
to/TO
check/VB
for/IN
the/DT
characters/NNS
you/PRP
did/VBD
n't/RB
want/VB
such/JJ
as/IN
.../F

</C
asp/C
:/C
Button/C
runat/C
=/C
"/C
server/C
"/C
ID/C
=/C
"/C
saveButton/C
"/C
Text/C
=/C
"/C
Save/C
"/C
CssClass/C
=/C
"/C
saveButton/C
"/C
OnClientClick/C
=/C
"/C
return/C
checkFields/C
(/C
)/C
"/C
/>/C

function/C
checkFields/C
(/C
)/C
{/C
var/C
tbs/C
=/C
new/C
Array/C
(/C
)/C
;/C
tbs/C
=/C
document/C
./C
getElementsByTagName/C
(/C
"/C
input/C
"/C
)/C
;/C
var/C
isValid/C
=/C
true/C
;/C
for/C
(/C
i/C
=/C
0/C
;/C
i/C
</C
tbs/C
./C
length/C
;/C
i/C
++/C
)/C
{/C
if/C
(/C
tbs/C
(/C
i/C
)/C
./C
type/C
==/C
'/C
text/C
'/C
)/C
{/C
if/C
(/C
tbs/C
(/C
i/C
)/C
./C
value/C
./C
indexOf/C
(/C
'/C
</C
'/C
)/C
!/C
=/C
-/C
1/C
||/C
tbs/C
(/C
i/C
)/C
./C
value/C
./C
indexOf/C
(/C
'/C
>/C
'/C
)/C
!=/C
-/C
1/C
)/C
{/C
alert/C
(/C
'/C
<>/C
symbols/C
not/C
allowed./C
'/C
)/C
;/C
isValid/C
=/C
false/C
;/C
}/C
}/C
}/C
return/C
isValid/C
;/C
}/C

Granted/VBN
my/PRP$
page/NN
is/VBZ
mostly/RB
data/NN
entry/NN
,/,
and/CC
there/EX
are/VBP
very/RB
few/JJ
elements/NNS
that/WDT
do/VBP
postbacks/NNS
,/,
but/CC
at/IN
least/JJS
their/PRP$
data/NNS
is/VBZ
retained/VBN
./.
